"bib","oclc","corporate","program","publisher","title","alt_title","cdates","duration","creation_date","date1","lang","director"
2385568,53311158,"Du Mont Television Network|Johns Hopkins University|WAAM (Television station : Baltimore, Md.)","Johns Hopkins science review (Television program)","Johns Hopkins University,","The magnificent microscope",,,"00:30:35","1951-05-15",2003,"English","Anthony Farrar"
2385570,53278602,"Du Mont Television Network|Johns Hopkins University|WAAM (Television station : Baltimore, Md.)","Johns Hopkins science review (Television program)","Johns Hopkins University,","The world is an atom",,,"00:29:20","1951-01-09",2003,"English","Anthony Farrar"
2385571,53310950,"Du Mont Television Network.|Johns Hopkins University|WAAM (Television station : Baltimore, Md.)","Johns Hopkins science review (Television program)","Johns Hopkins University,","Is there science in art?",,,"00:29:15","1951-02-27",2003,"English","Anthony Farrar"
2385573,53311063,"Du Mont Television Network|Johns Hopkins University|WAAM (Television station : Baltimore, Md.)","Johns Hopkins science review (Television program)","Johns Hopkins University,","Archaeology, key to the past","Archeology, key to the past",,"00:29:30","1951-03-13",2003,"English","Anthony Farrar"
2385576,53311118,"Du Mont Television Network|Johns Hopkins University|WAAM (Television station : Baltimore, Md.)","Johns Hopkins science review (Television program)","Johns Hopkins University,","Cancer will be conquered",,,"00:29:35","1951-04-10",2003,"English","Anthony Farrar"
2385577,53311128,"Du Mont Television Network|Johns Hopkins University|WAAM (Television station : Baltimore, Md.)","Johns Hopkins science review (Television program)","Johns Hopkins University,","Stream pollution, industrial headache",,,"00:29:30","1951-05-01",2003,"English","Anthony Farrar"
2385579,53311042,"Du Mont Television Network|Johns Hopkins University|WAAM (Television station : Baltimore, Md.)","Johns Hopkins science review (Television program)","Johns Hopkins University,","Fossils tell the story",,,"00:29:15","1951-03-06",2003,"English","Anthony Farrar"
2385580,53278639,"Du Mont Television Network|Johns Hopkins University|WAAM (Television station : Baltimore, Md.)","Johns Hopkins science review (Television program)","Johns Hopkins University,","Human Engineering",,,"00:21:05","1951-01-30",2003,"English","Anthony Farrar"
2385582,53278622,"Du Mont Television Network|Johns Hopkins University|WAAM (Television station : Baltimore, Md.)","Johns Hopkins science review (Television program)","Johns Hopkins University,","Volcanus, god of fire",,,"00:29:15","1951-01-23",2003,"English","Anthony Farrar"
2385583,53382085,"Du Mont Television Network|Johns Hopkins University|WAAM (Television station : Baltimore, Md.)","Johns Hopkins science review (Television program)","Johns Hopkins University,","The fight against polio",,,"00:29:00","1951-01-16",2003,"English","Anthony Farrar"
2385584,53382089,"Du Mont Television Network|Johns Hopkins University.|WAAM (Television station : Baltimore, Md.)","Johns Hopkins science review (Television program)","Johns Hopkins University,","Industrial hygiene",,,"00:28:55","1951-03-27",2003,"English","Anthony Farrar"
2385544,53311708,"Du Mont Television Network|Johns Hopkins University|WAAM (Television station : Baltimore, Md.)","Johns Hopkins science review (Television program)","Johns Hopkins University,","Convicted by microscope",,,"00:30:00","1951-10-29",2003,"English","Paul Kane"
2385545,53382115,"Du Mont Television Network|Johns Hopkins University|WAAM (Television station : Baltimore, Md.)","Johns Hopkins science review (Television program)","Johns Hopkins University,","Epidemic theory - what is it?","Epidemic theory, what is it?",,"00:29:50","1951-04-17",2003,"English","Anthony Farrar"
2385546,53382094,"Du Mont Television Network|Johns Hopkins University|WAAM (Television station : Baltimore, Md.)","Johns Hopkins science review (Television program)","Johns Hopkins University,","What you should know about biological warfare",,,"00:29:30","1951-04-03",2003,"English","Anthony Farrar"
2385547,53311758,"Du Mont Television Network|Johns Hopkins University|WAAM (Television station : Baltimore, Md.)","Johns Hopkins science review (Television program)","Johns Hopkins University,","The atom, beast or benefit?",,,"00:29:35","1951-11-26",2003,"English","Paul Kane"
2385549,53382078,"Du Mont Television Network.|Johns Hopkins University|WAAM (Television station : Baltimore, Md.)","Johns Hopkins science review (Television program)","Johns Hopkins University,","Schistosomiasis",,,"00:28:50","1950-11-21",2003,"English",
2385550,53311747,"Du Mont Television Network.|Johns Hopkins University|WAAM (Television station : Baltimore, Md.)","Johns Hopkins science review (Television program)","Johns Hopkins University,","Feeding the child",,,"00:29:40","1951-11-05",2003,"English","Paul Kane"
2385554,53311539,"Du Mont Television Network.|Johns Hopkins University|WAAM (Television station : Baltimore, Md.)","Johns Hopkins science review (Television program)","Johns Hopkins University,","Rh factor",,,"00:29:35","1951-07-24",2003,"English","Ed Sarrow"
2385556,53311566,"Du Mont Television Network|Johns Hopkins University|WAAM (Television station : Baltimore, Md.)","Johns Hopkins science review (Television program)","Johns Hopkins University,","The master glass blower",,,"00:29:35","1951-10-08",2003,"English","Paul Kane"
2385560,53311186,"Documentary Company|Du Mont Television Network|Johns Hopkins University|United States. Public Health Service|WAAM (Television station : Baltimore, Md.)","Johns Hopkins science review (Television program)","Johns Hopkins University,","Report on the living",,,"00:29:35","1951-06-12",2003,"English","Ed Sarrow"
2385561,53311554,"Du Mont Television Network|Johns Hopkins University|WAAM (Television station : Baltimore, Md.)","Johns Hopkins science review (Television program)","Johns Hopkins University,","Window of life",,,"00:29:30","1951-07-10",2003,"English","Ed Sarrow"
2385563,53311547,"Du Mont Television Network|Johns Hopkins University|WAAM (Television station : Baltimore, Md.)","Johns Hopkins science review (Television program)","Johns Hopkins University,","How well do you drive?",,,"00:29:35","1951-07-31",2003,"English","Ed Sarrow"
2385565,53311475,"Du Mont Television Network|Johns Hopkins University|WAAM (Television station : Baltimore, Md.)","Johns Hopkins science review (Television program)","Johns Hopkins University,","Control the food harvest",,,"00:30:55","1951-07-17",2003,"English","Ed Sarrow"
2388516,53382135,"Du Mont Television Network|Johns Hopkins University|WAAM (Television station : Baltimore, Md.)","Johns Hopkins science review (Television program)","Johns Hopkins University,","A visit to our studio",,,"00:29:40","1952-01-07",2003,"English","Paul Kane"
2388517,53382030,"Du Mont Television Network|Johns Hopkins University|WAAM (Television station : Baltimore, Md.)","Johns Hopkins science review (Television program)","Johns Hopkins University,","Krilium for tomorrow",,,"00:29:35","1952-02-04",2003,"English","Paul Kane"
2388518,53382021,"Du Mont Television Network|Johns Hopkins University|WAAM (Television station : Baltimore, Md.)","Johns Hopkins science review (Television program)","Johns Hopkins University,","Where does it begin?",,,"00:29:30","1951-11-12",2003,"English","Paul Kane"
2388519,53382042,"Du Mont Television Network|Johns Hopkins University|WAAM (Television station : Baltimore, Md.)","Johns Hopkins science review (Television program)","Johns Hopkins University,","Man against cancer.",,,"00:29:30","1953-01-12",2003,"English","Paul Kane"
2388520,53382140,"Du Mont Television Network|Johns Hopkins University|WAAM (Television station : Baltimore, Md.)","Johns Hopkins science review (Television program)","Johns Hopkins University,","The magic eye",,,"00:29:40","1951-10-15",2003,"English",
2388510,53382123,"Du Mont Television Network|Johns Hopkins University|WAAM (Television station : Baltimore, Md.)","Johns Hopkins science review (Television program)","Johns Hopkins University,","What is new in X-ray",,,"00:28:15","1951-09-25",2003,"English","Ed Sarrow"
2388511,53382050,"Du Mont Television Network|Johns Hopkins University|WAAM (Television station : Baltimore, Md.)","Johns Hopkins science review (Television program)","Johns Hopkins University,","The usefulness of useless knowledge",,,"00:29:50","1952-02-18",2003,"English","Paul Kane"
2388512,53382068,"Du Mont Television Network|Johns Hopkins University|WAAM (Television station : Baltimore, Md.)","Johns Hopkins science review (Television program)","Johns Hopkins University,","Solar power for food and fuel",,,"00:29:15","1952-02-11",2003,"English","Paul Kane"
2388513,53381966,"Du Mont Television Network|Johns Hopkins University|WAAM (Television station : Baltimore, Md.)","Johns Hopkins science review (Television program)","Johns Hopkins University,","Highlights of science from nine universities",,,"00:29:25","1951-12-31",2003,"English","Paul Kane"
2388514,53381989,"Du Mont Television Network|Johns Hopkins University|WAAM (Television station : Baltimore, Md.)","Johns Hopkins science review (Television program)","Johns Hopkins University,","Fluorine, it's good for you",,,"00:29:30","1952-01-28",2003,"English","Paul Kane"
2388515,53382014,"Du Mont Television Network|Johns Hopkins University|WAAM (Television station : Baltimore, Md.)","Johns Hopkins science review (Television program)","Johns Hopkins University,","The blood bank pays dividends",,,"00:30:26","1951-11-19",2003,"English","Paul Kane"
2390378,53670244,"Du Mont Television Network|Johns Hopkins University|WAAM (Television station : Baltimore, Md.)","Johns Hopkins science review (Television program)","Johns Hopkins University,","Weapon of stealth",,,"00:29:05","1952-03-24",2003,"English","Paul Kane"
2390379,53670890,"Du Mont Television Network|Johns Hopkins University|WAAM (Television station : Baltimore, Md.)","Johns Hopkins science review (Television program)","Johns Hopkins University,","Return on investment",,,"00:29:45","1952-02-25",2003,"English","Paul Kane"
2390380,53667487,"Du Mont Television Network|Johns Hopkins University|WAAM (Television station : Baltimore, Md.)","Johns Hopkins science review (Television program)","Johns Hopkins University,","An American looks at science in Britain.",,,"00:29:10","1952-05-07",2003,"English",
2390381,53669979,"Du Mont Television Network|Johns Hopkins University|WAAM (Television station : Baltimore, Md.)","Johns Hopkins science review (Television program)","Johns Hopkins University,","Pot luck on the Amazon",,,"00:29:30","1952-04-14",2003,"English","Paul Kane"
2390382,53672857,"Du Mont Television Network|Johns Hopkins University|WAAM (Television station : Baltimore, Md.)","Johns Hopkins science review (Television program)","Johns Hopkins University,","Skeletons in the closet",,,"00:29:40","1952-03-17",2003,"English","Paul Kane"
2390385,53671386,"Du Mont Television Network|Johns Hopkins University|WAAM (Television station : Baltimore, Md.)","Johns Hopkins science review (Television program)","Johns Hopkins University,","Mapping from the sky",,,"00:30:10","1952-03-03",2003,"English","Paul Kane"
2390389,53669540,"Du Mont Television Network|Johns Hopkins University|WAAM (Television station : Baltimore, Md.)","Johns Hopkins science review (Television program)","Johns Hopkins University,","What is an isotope?",,,"00:29:40","1952-04-21",2003,"English","Paul Kane"
2390391,53669001,"Du Mont Television Network|Johns Hopkins University|WAAM (Television station : Baltimore, Md.)","Johns Hopkins science review (Television program)","Johns Hopkins University,","Little known metals",,,"00:29:40","1952-04-28",2003,"English","Paul Kane"
2390394,53668664,"Du Mont Television Network|Johns Hopkins University|WAAM (Television station : Baltimore, Md.)","Johns Hopkins science review (Television program)","Johns Hopkins University,","Highlights of science from abroad",,,"00:29:30","1952-06-02",2003,"English","Paul Kane"
2394021,53843412,"Du Mont Television Network|Johns Hopkins University|WAAM (Television station : Baltimore, Md.)","Johns Hopkins science review (Television program)","Johns Hopkins University,","In your own back yard",,,"00:29:50","1952-07-14",2003,"English","Paul Kane"
2394022,53843302,"Du Mont Television Network|Johns Hopkins University|WAAM (Television station : Baltimore, Md.)","Johns Hopkins science review (Television program)","Johns Hopkins University,","The birds I view",,,"00:29:35","1952-06-23",2003,"English","Paul Kane"
2394023,53843392,"Du Mont Television Network|Johns Hopkins University|WAAM (Television station : Baltimore, Md.)","Johns Hopkins science review (Television program)","Johns Hopkins University,","Raising cane, scientifically",,,"00:29:30","1952-09-01",2003,"English","Paul Kane"
2394024,53841914,"Du Mont Television Network|Johns Hopkins University|WAAM (Television station : Baltimore, Md.)","Johns Hopkins science review (Television program)","Johns Hopkins University,","The sky doctors",,,"00:29:40","1952-04-07",2003,"English","Paul Kane"
2394025,53842048,"Du Mont Television Network|Johns Hopkins University|WAAM (Television station : Baltimore, Md.)","Johns Hopkins science review (Television program)","Johns Hopkins University,","Great men of science",,,"00:29:35","1952-05-05",2003,"English","Paul Kane"
2394008,53841836,"Du Mont Television Network|Johns Hopkins University|WAAM (Television station : Baltimore, Md.)","Johns Hopkins science review (Television program)","Johns Hopkins University,","Can we predict elections?",,,"00:29:45","1952-03-31",2003,"English","Paul Kane"
2394017,53841810,"Du Mont Television Network|Johns Hopkins University|WAAM (Television station : Baltimore, Md.)","Johns Hopkins science review (Television program)","Johns Hopkins University,","Don't drink that water",,,"00:29:45","1951-03-20",2003,"English",
2394018,53843407,"Du Mont Television Network|Johns Hopkins University|WAAM (Television station : Baltimore, Md.)","Johns Hopkins science review (Television program)","Johns Hopkins University,","The worm turns",,,"00:29:35","1952-07-21",2003,"English","Paul Kane"
2394019,53843396,"Du Mont Television Network|Johns Hopkins University|WAAM (Television station : Baltimore, Md.)","Johns Hopkins science review (Television program).","Johns Hopkins University,","Stars in your skies",,,"00:28:45","1952-08-04",2003,"English","Paul Kane"
2394020,53843385,"Du Mont Television Network|Johns Hopkins University|WAAM (Television station : Baltimore, Md.)","Johns Hopkins science review (Television program)","Johns Hopkins University,","Blowing glass for science",,,"00:29:35","1952-09-29",2003,"English","Paul Kane"
2396000,54030305,"Du Mont Television Network|Johns Hopkins University|WAAM (Television station : Baltimore, Md.)","Johns Hopkins science review (Television program)","Johns Hopkins University,","Man will conquer space.",,,"00:28:45","1953-10-24",2003,"English","Paul Kane"
2396001,54030512,"Du Mont Television Network|Johns Hopkins University|WAAM (Television station : Baltimore, Md.)","Johns Hopkins science review (Television program)","Johns Hopkins University,","Sound and hearing",,,"00:29:30","1952-11-24",2003,"English","Paul Kane"
2396002,53958613,"Du Mont Television Network|Johns Hopkins University|WAAM (Television station : Baltimore, Md.)","Johns Hopkins science review (Television program)","Johns Hopkins University,","Why do your muscles get tired?",,,"00:29:35","1952-11-17",2003,"English","Paul Kane"
2396003,53958077,"Du Mont Television Network|Johns Hopkins University|WAAM (Television station : Baltimore, Md.)","Johns Hopkins science review (Television program)","Johns Hopkins University,","Seeing is not believing",,,"00:28:45","1952-12-01",2003,"English","Paul Kane"
2396004,53957829,"Du Mont Television Network|Johns Hopkins University|WAAM (Television station : Baltimore, Md.)","Johns Hopkins science review (Television program)","Johns Hopkins University,","Scientists of tomorrow",,,"00:29:35","1952-09-08",2003,"English","Paul Kane"
2396006,53958157,"Du Mont Television Network|Johns Hopkins University|WAAM (Television station : Baltimore, Md.)","Johns Hopkins science review (Television program)","Johns Hopkins University,","Seventy-five years of science",,,"00:29:45","1951-02-20",2003,"English","Anthony Farrar"
2396007,53958579,"Du Mont Television Network|Johns Hopkins University|WAAM (Television station : Baltimore, Md.)","Johns Hopkins science review (Television program)","Johns Hopkins University,","No one wants flies",,,"00:29:50","1951-05-29",2003,"English","Ed Sarrow"
2396010,53957818,"Du Mont Television Network|Johns Hopkins University|WAAM (Television station : Baltimore, Md.)","Johns Hopkins science review (Television program)","Johns Hopkins University,","The heart and circulation",,,"00:29:35","1952-08-25",2003,"English",
2396014,53958623,"Du Mont Television Network|Johns Hopkins University|WAAM (Television station : Baltimore, Md.)","Johns Hopkins science review (Television program)","Johns Hopkins University,","What do you know about wood?",,,"00:29:30","1952-08-18",2003,"English","Paul Kane"
2396015,53958085,"Du Mont Television Network|Johns Hopkins University|WAAM (Television station : Baltimore, Md.)","Johns Hopkins science review (Television program)","Johns Hopkins University,","How to lead your dog's life",,,"00:29:30","1952-06-16",2003,"English","Paul Kane"
2396016,53958605,"Du Mont Television Network|Johns Hopkins University|WAAM (Television station : Baltimore, Md.)","Johns Hopkins science review (Television program)","Johns Hopkins University,","Naval research today",,,"00:29:00","1952-12-08",2003,"English","Paul Kane"
2396018,53958186,"Du Mont Television Network|Johns Hopkins University|WAAM (Television station : Baltimore, Md.)","Johns Hopkins science review (Television program)","Johns Hopkins University,","Stories in stone",,,"00:29:35","1952-07-28",2003,"English","Paul Kane"
2395974,53958637,"Du Mont Television Network|Johns Hopkins University|WAAM (Television station : Baltimore, Md.)","Johns Hopkins science review (Television program)","Johns Hopkins University,","How clean is clean",,,"00:29:35","1952-11-03",2003,"English","Paul Kane"
2395975,53958092,"Du Mont Television Network|Johns Hopkins University|WAAM (Television station : Baltimore, Md.)","Johns Hopkins science review (Television program)","Johns Hopkins University,","The human centrifuge",,,"00:29:40","1952-11-10",2003,"English","Paul Kane"
2395995,53957791,"Du Mont Television Network|Johns Hopkins University|WAAM (Television station : Baltimore, Md.)","Johns Hopkins science review (Television program)","Johns Hopkins University,","The story of a parchment",,,"00:29:30","1951-09-18",2003,"English","Ed Sarrow"
2395996,53957880,"Du Mont Television Network|Johns Hopkins University|WAAM (Television station : Baltimore, Md.)","Johns Hopkins science review (Television program)","Johns Hopkins University,","Can machines think?",,,"00:29:45","1952-10-27",2003,"English","Paul Kane"
2395997,53958022,"Du Mont Television Network|Johns Hopkins University|WAAM (Television station : Baltimore, Md.)","Johns Hopkins science review (Television program)","Johns Hopkins University,","News from the sky",,,"00:29:35","1951-10-02",2003,"English","Paul Kane"
2395998,53958643,"Du Mont Television Network|Johns Hopkins University|WAAM (Television station : Baltimore, Md.)","Johns Hopkins science review (Television program)","Johns Hopkins University,","Man will conquer space.",,,"00:28:40","1952-10-20",2003,"English","Paul Kane"
2395999,54030328,"Du Mont Television Network|Johns Hopkins University|WAAM (Television station : Baltimore, Md.)","Johns Hopkins science review (Television program)","Johns Hopkins University,","Man will conquer space.",,,"00:28:40","1952-10-06",2003,"English","Paul Kane"
2396996,54028763,"Du Mont Television Network|Johns Hopkins University|WAAM (Television station : Baltimore, Md.)","Johns Hopkins science review (Television program)","Johns Hopkins University,","Is it true?",,,"00:29:45","1951-10-22",2003,"English","Paul Kane"
2396997,54030414,"Du Mont Television Network|Johns Hopkins University|WAAM (Television station : Baltimore, Md.)","Johns Hopkins science review (Television program)","Johns Hopkins University,","More about space travel",,,"00:29:00","1953-03-02",2003,"English","Paul Kane"
2396998,54028629,"Du Mont Television Network|Johns Hopkins University|WAAM (Television station : Baltimore, Md.)","Johns Hopkins science review (Television program)","Johns Hopkins University,","Repairing bones with metal",,,"00:29:40","1953-02-09",2003,"English","Ed Sarrow"
2396999,54028733,"Du Mont Television Network|Johns Hopkins University|WAAM (Television station : Baltimore, Md.)","Johns Hopkins science review (Television program)","Johns Hopkins University,","The atomic submarine",,,"00:28:55","1953-02-02",2003,"English",
2397000,54028718,"Du Mont Television Network|Johns Hopkins University|WAAM (Television station : Baltimore, Md.)","Johns Hopkins science review (Television program)","Johns Hopkins University,","Medical science at home & abroad.","Medical science at home and abroad",,"00:29:00","1953-04-06",2003,"English","Paul Kane"
2397002,54030396,"Du Mont Television Network.|Johns Hopkins University|WAAM (Television station : Baltimore, Md.)","Johns Hopkins science review (Television program)","Johns Hopkins University,","The turning point",,,"00:29:05","1953-02-16",2003,"English","Ed Sarrow"
2397003,54030487,"Du Mont Television Network.|Johns Hopkins University|WAAM (Television station : Baltimore, Md.)","Johns Hopkins science review (Television program)","Johns Hopkins University,","Five years in review",,,"00:28:50","1953-03-09",2003,"English","Paul Kane"
2397005,54030538,"Du Mont Television Network|Johns Hopkins University|WAAM (Television station : Baltimore, Md.)","Johns Hopkins science review (Television program)","Johns Hopkins University,","Trace elements, what are they?",,,"00:28:55","1953-02-23",2003,"English","Paul Kane"
2397006,54028781,"Du Mont Television Network|Johns Hopkins University|WAAM (Television station : Baltimore, Md.)","Johns Hopkins science review (Television program)","Johns Hopkins University,","The most precise machine in the world",,,"00:29:05","1953-03-23",2003,"English","Paul Kane"
2403911,54367798,"British Information Services|Du Mont Television Network|Johns Hopkins University|WAAM (Television station : Baltimore, Md.)","Johns Hopkins science review (Television program)","Johns Hopkins University,","In all weather, radar",,,"00:28:55","1953-08-26",2004,"English",
2403913,54367450,"British Information Services|Du Mont Television Network|Johns Hopkins University|WAAM (Television station : Baltimore, Md.)","Johns Hopkins science review (Television program)","Johns Hopkins University,","Charting the seas",,,"00:29:25","1953-08-12",2004,"English",
2403914,54367414,"Du Mont Television Network|Johns Hopkins University|WAAM (Television station : Baltimore, Md.)","Johns Hopkins science review (Television program)","Johns Hopkins University,","Dividends of science",,,"00:29:10","1953-07-22",2004,"English","Kennard Calfee|Herbert B. Cahan"
2403915,54367836,"Du Mont Television Network|Johns Hopkins University|WAAM (Television station : Baltimore, Md.)","Johns Hopkins science review (Television program)","Johns Hopkins University,","Man in his element",,,"00:28:50","1953-05-20",2004,"English","Kennard Calfee|Herbert B. Cahan"
2403916,54367867,"Du Mont Television Network|Johns Hopkins University|WAAM (Television station : Baltimore, Md.)","Johns Hopkins science review (Television program)","Johns Hopkins University,","Disposal of radioactive wastes","Disposal of radioactive waste",,"00:28:55","1953-04-20",2003,"English","Paul Kane"
2403917,54367438,"Du Mont Television Network|Johns Hopkins University|WAAM (Television station : Baltimore, Md.)","Johns Hopkins science review (Television program)","Johns Hopkins University,","The story of a needle",,,"00:28:40","1953-05-27",2004,"English","Kennard Calfee|Herbert B. Cahan"
2403918,54367133,"Du Mont Television Network|Johns Hopkins University|WAAM (Television station : Baltimore, Md.)","Johns Hopkins science review (Television program)","Johns Hopkins University,","Life in a drop of water",,,"00:28:50","1953-08-05",2004,"English","Ed Sarrow|Herbert B. Cahan"
2403919,54367720,"Du Mont Television Network|Johns Hopkins University|WAAM (Television station : Baltimore, Md.)","Johns Hopkins science review (Television program)","Johns Hopkins University,","News from the sky",,,"00:29:00","1953-04-13",2003,"English","Paul Kane"
2403920,54367407,"Du Mont Television Network|Johns Hopkins University|WAAM (Television station : Baltimore, Md.)","Johns Hopkins science review (Television program)","Johns Hopkins University,","Fear",,,"00:29:00","1953-11-04",2004,"English","Kennard Calfee|Herbert B. Cahan"
2403921,54367816,"Du Mont Television Network|Johns Hopkins University|WAAM (Television station : Baltimore, Md.)","Johns Hopkins science review (Television program)","Johns Hopkins University,","Surgical sewing",,,"00:28:35","1953-10-28",2004,"English","Kennard Calfee|Herbert B. Cahan"
2403635,54106544,"Du Mont Television Network|Johns Hopkins University|WAAM (Television station : Baltimore, Md.)","Johns Hopkins science review (Television program)","Johns Hopkins University,","3-D in science","Three-D in science|Three-dimension in science",,"00:28:45","1953-09-09",2004,"English","Kennard Calfee|Herbert B. Cahan"
2403636,54105419,"Du Mont Television Network|Johns Hopkins University|WAAM (Television station : Baltimore, Md.)","Johns Hopkins science review (Television program)","Johns Hopkins University,","Photography in science",,,"00:28:35","1953-07-29",2004,"English",
2403638,54106579,"Du Mont Television Network|Johns Hopkins University|WAAM (Television station : Baltimore, Md.)","Johns Hopkins science review (Television program)","Johns Hopkins University,","Making light behave",,,"00:21:00","1953-09-02",2004,"English","Kennard Calfee|Herbert B. Cahan"
2403639,54105954,"Du Mont Television Network|Johns Hopkins University|WAAM (Television station : Baltimore, Md.)","Johns Hopkins science review (Television program)","Johns Hopkins University,","What's the weather?",,,"00:28:55","1953-06-10",2004,"English","Kennard Calfee|Herbert B. Cahan"
2403641,54105486,"Du Mont Television Network|Johns Hopkins University|WAAM (Television station : Baltimore, Md.)","Johns Hopkins science review (Television program)","Johns Hopkins University,","Kids look at science",,,"00:28:40","1953-08-19",2004,"English","Kennard Calfee|Herbert B. Cahan"
2403644,54106389,"Du Mont Television Network|Johns Hopkins University|WAAM (Television station : Baltimore, Md.)","Johns Hopkins science review (Television program)","Johns Hopkins University,","He is an epileptic",,,"00:28:20","1953-10-07",2004,"English","Kennard Calfee|Herbert B. Cahan"
2403624,54106514,"Du Mont Television Network|Johns Hopkins University|WAAM (Television station : Baltimore, Md.)","Johns Hopkins science review (Television program)","Johns Hopkins University,","Conquest of pain",,,"00:26:35","1953-09-30",2004,"English",
2403627,54106375,"Du Mont Television Network|Johns Hopkins University|WAAM (Television station : Baltimore, Md.)|Walters Art Gallery (Baltimore, Md.)","Johns Hopkins science review (Television program)|Leonardo da Vinci : his note books.","Johns Hopkins University,","Da Vinci, man of science","Leonardo, man of science",,"00:29:30","1953-10-14",2004,"English","Kennard Calfee|Herbert B. Cahan"
2403629,54106198,"Du Mont Television Network|Johns Hopkins University|WAAM (Television station : Baltimore, Md.)","Johns Hopkins science review (Television program)","Johns Hopkins University,","Man made fibers",,,"00:28:45","1953-05-06",2003,"English","Paul Kane"
2403632,54106352,"Du Mont Television Network|Johns Hopkins University|WAAM (Television station : Baltimore, Md.)","Johns Hopkins science review (Television program)","Johns Hopkins University,","Sleep",,,"00:28:45","1953-10-21",2004,"English","Kennard Calfee|Herbert B. Cahan"
2403633,54106262,"Du Mont Television Network|Johns Hopkins University|WAAM (Television station : Baltimore, Md.)","Johns Hopkins science review (Television program)","Johns Hopkins University,","The mighty midget",,,"00:29:15","1953-03-30",2003,"English","Paul Kane"
2405684,54492110,"Du Mont Television Network|Johns Hopkins University|Monsanto Company|WAAM (Television station : Baltimore, Md.)","Johns Hopkins science review (Television program)","Johns Hopkins University,","Decision for chemistry",,,"00:29:26","1954-07-01",2004,"English",
2405685,54858475,"Du Mont Television Network|Johns Hopkins University|WAAM (Television station : Baltimore, Md.)","Johns Hopkins science review (Television program)","Johns Hopkins University,","Science of toys",,,"00:28:10","1953-12-09",2004,"English","Paul Kane"
2405687,54492197,"Du Mont Television Network|Johns Hopkins University|WAAM (Television station : Baltimore, Md.)","Johns Hopkins science review (Television program)","Johns Hopkins University,","A closer look at Mars",,,"00:29:20","1954-04-29",2004,"English","Kennard Calfee|Herbert B. Cahan"
2405688,54492241,"Du Mont Television Network|Johns Hopkins University|WDTV (Television station : Pittsburgh, Pa.)","Johns Hopkins science review (Television program)","Johns Hopkins University,","Looking at glass",,,"00:28:20","1954-05-06",2004,"English","Jerry Lee"
2405690,54492029,"Du Mont Television Network|Johns Hopkins University|U.S. Atomic Energy Commission.|United States. Air Force. Air Research and Development Command|WAAM (Television station : Baltimore, Md.)","Johns Hopkins science review (Television program)","Johns Hopkins University,","Air science in action",,,"00:29:10","1954-04-07",2004,"English","Kennard Calfee|Herbert B. Cahan"
2405695,54492174,"Du Mont Television Network|Johns Hopkins University|WAAM (Television station : Baltimore, Md.)","Johns Hopkins science review (Television program)","Johns Hopkins University,","X-ray marks the spot",,,"00:29:00","1954-05-20",2004,"English","Kennard Calfee|Herbert B. Cahan"
2405696,54492005,"Du Mont Television Network|Johns Hopkins University|WAAM (Television station : Baltimore, Md.)","Johns Hopkins science review (Television program)","Johns Hopkins University,","Total eclipse of the sun",,,"00:28:50","1954-04-21",2004,"English","Kennard Calfee|Herbert B. Cahan"
2405697,54492259,"Du Mont Television Network|Johns Hopkins University|WAAM (Television station : Baltimore, Md.)","Johns Hopkins science review (Television program)","Johns Hopkins University,","Preserving wood","Making wood last longer",,"00:29:00","1954-05-13",2004,"English","Kennard Calfee|Herbert B. Cahan"
2405698,54492274,"Du Mont Television Network|Johns Hopkins University|WAAM (Television station : Baltimore, Md.)","Johns Hopkins science review (Television program)","Johns Hopkins University,","Heating houses with the sun's rays",,,"00:28:30","1954-06-03",2004,"English","Kennard Calfee|Herbert B. Cahan"
2405699,54494321,"Du Mont Television Network|Johns Hopkins University|WAAM (Television station : Baltimore, Md.)","Johns Hopkins science review (Television program)","Johns Hopkins University,","Battle of a century",,,"00:28:00","1954-03-17",2004,"English","Kennard Calfee|Herbert B. Cahan"
2405701,54427716,"Du Mont Television Network|Johns Hopkins University|WAAM (Television station : Baltimore, Md.)","Johns Hopkins science review (Television program)","Johns Hopkins University,","Highlights of science for 1953",,,"00:29:20","1953-12-30",2004,"English","Kennard Calfee|Herbert B. Cahan"
2405702,54427757,"Du Mont Television Network|Johns Hopkins University|WAAM (Television station : Baltimore, Md.)","Johns Hopkins science review (Television program)","Johns Hopkins University,","Concrete with muscles",,,"00:28:40","1954-02-17",2004,"English","Kennard Calfee|Herbert B. Cahan"
2405677,54491976,"Du Mont Television Network|Johns Hopkins University|WAAM (Television station : Baltimore, Md.)","Johns Hopkins science review (Television program)","Johns Hopkins University,","A trip through your heart",,,"00:28:45","1954-03-10",2004,"English","Kennard Calfee|Herbert B. Cahan"
2405678,54491990,"Du Mont Television Network|Johns Hopkins University|WAAM (Television station : Baltimore, Md.)","Johns Hopkins science review (Television program)","Johns Hopkins University,","Catching a brain wave",,,"00:28:30","1954-03-24",2004,"English","Kennard Calfee|Herbert B. Cahan"
2405680,54492061,"Du Mont Television Network|Johns Hopkins University|WAAM (Television station : Baltimore, Md.)","Johns Hopkins science review (Television program)","Johns Hopkins University,","Only skin deep",,,"00:29:15","1954-06-10",2004,"English",
2405682,54492048,"Du Mont Television Network|Johns Hopkins University|WAAM (Television station : Baltimore, Md.)","Johns Hopkins science review (Television program)","Johns Hopkins University,","Health superstitions",,,"00:28:30","1954-04-14",2004,"English","Kennard Calfee|Herbert B. Cahan"
2405572,54427658,"Du Mont Television Network|Johns Hopkins University|WAAM (Television station : Baltimore, Md.)","Johns Hopkins science review (Television program)","Johns Hopkins University,","Electronic brain and mechanical arm",,,"00:28:50","1954-01-20",2004,"English","Kennard Calfee|Herbert B. Cahan"
2405573,54427313,"Du Mont Television Network|Johns Hopkins University|WAAM (Television station : Baltimore, Md.)","Johns Hopkins science review (Television program)","Johns Hopkins University,","Plastic surgery",,,"00:28:40","1953-09-16",2004,"English","Kennard Calfee|Herbert B. Cahan"
2405545,54427763,"Du Mont Television Network|Johns Hopkins University|WAAM (Television station : Baltimore, Md.)","Johns Hopkins science review (Television program)","Johns Hopkins University,","Science coast to coast",,,"00:29:20","1954-02-24",2004,"English","Kennard Calfee|Herbert B. Cahan"
2405560,54427640,"Du Mont Television Network|Johns Hopkins University|WAAM (Television station : Baltimore, Md.)","Johns Hopkins science review (Television program)","Johns Hopkins University,","Students build a rocket",,,"00:28:20","1953-12-23",2004,"English","Kennard Calfee|Herbert B. Cahan"
2405564,54427682,"Du Mont Television Network|Johns Hopkins University|WAAM (Television station : Baltimore, Md.)","Johns Hopkins science review (Television program)","Johns Hopkins University,","Birth of a flame",,,"00:28:15","1953-11-18",2004,"English","Kennard Calfee|Herbert B. Cahan"
2405566,54427771,"Du Mont Television Network|Johns Hopkins University|WAAM (Television station : Baltimore, Md.)","Johns Hopkins science review (Television program)","Johns Hopkins University,","Man, marvel of design",,,"00:28:25","1953-11-25",2004,"English","Kennard Calfee|Herbert B. Cahan"
2405567,54427539,"Du Mont Television Network|Johns Hopkins University|WAAM (Television station : Baltimore, Md.)","Johns Hopkins science review (Television program)","Johns Hopkins University,","Premature babies",,,"00:28:50","1954-01-27",2004,"English","Kennard Calfee|Herbert B. Cahan"
2405568,54427550,"Du Mont Television Network|Johns Hopkins University|WAAM (Television station : Baltimore, Md.)","Johns Hopkins science review (Television program)","Johns Hopkins University,","The Christmas star",,,"00:28:45","1953-12-16",2004,"English","Kennard Calfee|Herbert B. Cahan"
2405569,54427750,"Du Mont Television Network|Johns Hopkins University|WAAM (Television station : Baltimore, Md.)","Johns Hopkins science review (Television program)","Johns Hopkins University,","The first day of life",,,"00:28:55","1954-02-03",2004,"English","Kennard Calfee|Herbert B. Cahan"
2405537,54427693,"Du Mont Television Network|Johns Hopkins University|WAAM (Television station : Baltimore, Md.)","Johns Hopkins science review (Television program)","Johns Hopkins University,","Girl with the lamp",,,"00:28:00","1954-01-06",2004,"English","Kennard Calfee|Herbert B. Cahan"
2405703,54427739,"Du Mont Television Network|Johns Hopkins University|WAAM (Television station : Baltimore, Md.)","Johns Hopkins science review (Television program)","Johns Hopkins University,","Symbols of science",,,"00:28:50","1953-09-23",2004,"English","Kennard Calfee|Herbert B. Cahan"
2405705,54427581,"Du Mont Television Network|Johns Hopkins University|WAAM (Television station : Baltimore, Md.)","Johns Hopkins science review (Television program)","Johns Hopkins University,","Basic tools of science",,,"00:29:45","1953-12-02",2004,"English","Kennard Calfee|Herbert B. Cahan"
2409157,54684378,"Du Mont Television Network|Johns Hopkins University|WAAM (Television station : Baltimore, Md.)","Johns Hopkins science review (Television program)","Johns Hopkins University,","Corralling the Colorado",,,"00:29:05","1954-08-05",2004,"English",
2409159,54684228,"Du Mont Television Network|Johns Hopkins University|WAAM (Television station : Baltimore, Md.)","Johns Hopkins science review (Television program)","Johns Hopkins University,","The skin you're in",,,"00:28:30","1954-10-03",2004,"English","Kennard Calfee|Herbert B. Cahan"
2409127,54681492,"Du Mont Television Network|Johns Hopkins University|WAAM (Television station : Baltimore, Md.)","Johns Hopkins science review (Television program)","Johns Hopkins University,","Questions of science",,,"00:29:45","1954-08-26",2004,"English","Kennard Calfee|Herbert B. Cahan"
2409128,54681811,"British Information Services|Du Mont Television Network|Johns Hopkins University|WAAM (Television station : Baltimore, Md.)","Johns Hopkins science review (Television program)","Johns Hopkins University,","The wonder jet",,,"00:29:15","1954-08-12",2004,"English",
2409129,54681841,"Du Mont Television Network|Johns Hopkins University|WAAM (Television station : Baltimore, Md.)","Johns Hopkins science review (Television program)","Johns Hopkins University,","Life in your own yard","Web of life in fresh water",,"00:29:15","1954-08-19",2004,"English","Kennard Calfee|Herbert B. Cahan"
2409130,54681795,"British Information Services|Du Mont Television Network|Johns Hopkins University|WAAM (Television station : Baltimore, Md.)","Johns Hopkins science review (Television program)","Johns Hopkins University,","Beginnings of history.",,,"00:29:00","1954-07-15",2004,"English",
2409132,54681531,"Du Mont Television Network|Johns Hopkins University|WAAM (Television station : Baltimore, Md.)","Johns Hopkins science review (Television program)","Johns Hopkins University,","Farm to you",,,"00:29:10","1954-09-05",2004,"English","Kennard Calfee|Herbert B. Cahan"
2409133,54681615,"Du Mont Television Network|Johns Hopkins University|WAAM (Television station : Baltimore, Md.)","Johns Hopkins science review (Television program)","Johns Hopkins University,","Science, the super sleuth",,,"00:28:45","1954-09-12",2004,"English","Kennard Calfee|Herbert B. Cahan"
2409134,54681692,"Du Mont Television Network|Johns Hopkins University|WAAM (Television station : Baltimore, Md.)","Johns Hopkins science review (Television program)","Johns Hopkins University,","Last one in",,,"00:28:45","1954-07-08",2004,"English","Kennard Calfee|Herbert B. Cahan"
2411056,54771048,"ABC Television Network|Johns Hopkins University|WAAM (Television station : Baltimore, Md.)","Tomorrow (Television program)","Johns Hopkins University,","Industrial designer",,,"00:29:00","1955-04-30",2004,"English","Kennard Calfee|Herbert B. Cahan"
2411037,54770671,"Du Mont Television Network|Johns Hopkins University|WAAM (Television station : Baltimore, Md.)","Johns Hopkins science review (Television program)","Johns Hopkins University,","Seven years old",,,"00:29:05","1955-03-06",2004,"English","Kennard Calfee|Herbert B. Cahan"
2411039,54686499,"Du Mont Television Network|Johns Hopkins University|WAAM (Television station : Baltimore, Md.)","Johns Hopkins science review (Television program)","Johns Hopkins University,","Tic douloureux, nature's worst pain",,,"00:29:10","1955-02-20",2004,"English","Kennard Calfee|Herbert B. Cahan"
2411040,54684685,"Du Mont Television Network|Johns Hopkins University|WAAM (Television station : Baltimore, Md.)","Johns Hopkins science review (Television program)","Johns Hopkins University,","How wet is wet?",,,"00:28:50","1955-01-09",2004,"English","Kennard Calfee|Herbert B. Cahan"
2411041,54686423,"Du Mont Television Network|Johns Hopkins University|WAAM (Television station : Baltimore, Md.)","Johns Hopkins science review (Television program)","Johns Hopkins University,","Courtroom doctors",,,"00:28:35","1954-10-10",2004,"English","Kennard Calfee|Herbert B. Cahan"
2411045,54684709,"Du Mont Television Network|Johns Hopkins University|WAAM (Television station : Baltimore, Md.)","Johns Hopkins science review (Television program)","Johns Hopkins University,","Chemical spark plug",,,"00:28:40","1954-09-26",2004,"English","Kennard Calfee|Herbert B. Cahan"
2411046,54684742,"Du Mont Television Network|Johns Hopkins University|WAAM (Television station : Baltimore, Md.)","Johns Hopkins science review (Television program)","Johns Hopkins University,","Living together",,,"00:28:15","1954-11-07",2004,"English","Kennard Calfee|Herbert B. Cahan"
2411047,54770722,"British Information Services|Du Mont Television Network|Johns Hopkins University|WAAM (Television station : Baltimore, Md.)","Johns Hopkins science review (Television program)","Johns Hopkins University,","Beginnings of history.",,,"00:29:15","1954-07-22",2004,"English",
2411048,54684721,"Du Mont Television Network|Johns Hopkins University|WAAM (Television station : Baltimore, Md.)","Johns Hopkins science review (Television program)","Johns Hopkins University,","Solar battery",,,"00:28:55","1954-07-29",2004,"English","Kennard Calfee|Herbert B. Cahan"
2411049,54685309,"Du Mont Television Network|Johns Hopkins University|WAAM (Television station : Baltimore, Md.)","Johns Hopkins science review (Television program)","Johns Hopkins University,","Electricity in medicine",,,"00:28:45","1954-10-17",2004,"English","Kennard Calfee|Herbert B. Cahan"
2411050,54770555,"Du Mont Television Network|Johns Hopkins University|WAAM (Television station : Baltimore, Md.)","Johns Hopkins science review (Television program)","Johns Hopkins University,","The peaceful atom.","Peaceful atom III",,"00:29:10","1954-12-26",2004,"English","Kennard Calfee|Herbert B. Cahan"
2411051,54685233,"Du Mont Television Network|Johns Hopkins University|WAAM (Television station : Baltimore, Md.)","Johns Hopkins science review (Television program)","Johns Hopkins University,","Kids with courage",,,"00:29:10","1954-10-17",2004,"English","Kennard Calfee|Herbert B. Cahan"
2411052,54770524,"Du Mont Television Network|Johns Hopkins University|WAAM (Television station : Baltimore, Md.)","Johns Hopkins science review (Television program)","Johns Hopkins University,","The peaceful atom.",,,"00:29:15","1954-12-12",2004,"English","Kennard Calfee|Herbert B. Cahan"
2411053,54770542,"Du Mont Television Network|Johns Hopkins University|WAAM (Television station : Baltimore, Md.)","Johns Hopkins science review (Television program)","Johns Hopkins University,","The peaceful atom.","Peaceful atom II",,"00:28:45","1954-12-19",2004,"English","Kennard Calfee|Herbert B. Cahan"
2411054,54685133,"Du Mont Television Network|Johns Hopkins University|WAAM (Television station : Baltimore, Md.)","Johns Hopkins science review (Television program)","Johns Hopkins University,","Skin diving for science",,,"00:29:15","1955-02-27",2004,"English","Kennard Calfee|Herbert B. Cahan"
2411055,54771035,"ABC Television Network|Johns Hopkins University|WAAM (Television station : Baltimore, Md.)","Tomorrow (Television program)","Johns Hopkins University,","Medical technologist",,,"00:29:10","1955-04-16",2004,"English","Kennard Calfee|Herbert B. Cahan"
2411035,54684831,"Du Mont Television Network|Johns Hopkins University|WAAM (Television station : Baltimore, Md.)","Johns Hopkins science review (Television program)","Johns Hopkins University,","Is our weather changing?",,,"00:29:10","1955-02-06",2004,"English","Kennard Calfee|Herbert B. Cahan"
2411036,54685207,"Du Mont Television Network|Johns Hopkins University|WAAM (Television station : Baltimore, Md.)","Johns Hopkins science review (Television program)","Johns Hopkins University,","Metal for bones",,,"00:29:00","1954-11-21",2004,"English","Kennard Calfee|Herbert B. Cahan"
2414078,54712465,"ABC Television Network|Johns Hopkins University|WAAM (Television station : Baltimore, Md.)","Tomorrow's careers (Television program)","Johns Hopkins University,","The lawyer",,,"00:28:35","1955-12-03",2004,"English","Kennard Calfee|Herbert B. Cahan"
2414080,54770975,"ABC Television Network|Johns Hopkins University|WAAM (Television station : Baltimore, Md.)","Tomorrow's careers (Television program)","Johns Hopkins University,","Investment banker",,,"00:28:40","1956-02-21",2004,"English","Kennard Calfee|Herbert B. Cahan"
2414064,54859801,"ABC Television Network|Johns Hopkins University|WAAM (Television station : Baltimore, Md.)","Tomorrow (Television program)","Johns Hopkins University,","The metallurgist",,,"00:29:05","1955-03-26",2004,"English","Kennard Calfee|Herbert B. Cahan"
2414065,54770920,"ABC Television Network|Johns Hopkins University|WAAM (Television station : Baltimore, Md.)","Tomorrow's careers (Television program)","Johns Hopkins University,","The mathematician",,,"00:28:35","1956-04-10",2004,"English","Kennard Calfee|Herbert B. Cahan"
2414066,54859547,"ABC Television Network|Johns Hopkins University|WAAM (Television station : Baltimore, Md.)","Tomorrow (Television program)","Johns Hopkins University,","Power engineer",,,"00:29:05","1955-05-07",2004,"English","Kennard Calfee|Herbert B. Cahan"
2414067,54770893,"ABC Television Network|Johns Hopkins University|WAAM (Television station : Baltimore, Md.)","Tomorrow's careers (Television program)","Johns Hopkins University,","The nurse",,,"00:29:05","1955-10-01",2004,"English","Kennard Calfee|Herbert B. Cahan"
2414068,54771093,"ABC Television Network|Johns Hopkins University|WAAM (Television station : Baltimore, Md.)","Tomorrow's careers (Television program)","Johns Hopkins University,","Motion picture director",,,"00:29:05","1956-02-07",2004,"English","Kennard Calfee|Herbert B. Cahan"
2414069,54712398,"ABC Television Network|Johns Hopkins University|WAAM (Television station : Baltimore, Md.)","Tomorrow's careers (Television program)","Johns Hopkins University,","Public servant in government",,,"00:28:35","1956-01-31",2004,"English","Kennard Calfee|Herbert B. Cahan"
2414070,55024801,"ABC Television Network|Johns Hopkins University|WAAM (Television station : Baltimore, Md.)","Tomorrow's careers (Television program)","Johns Hopkins University,","The anthropologist",,,"00:28:40","1956-03-20",2004,"English","Kennard Calfee|Herbert B. Cahan"
2414072,54859629,"ABC Television Network|Johns Hopkins University|WAAM (Television station : Baltimore, Md.)","Tomorrow (Television program)","Johns Hopkins University,","The agricultural chemist",,,"00:29:10","1955-05-28",2004,"English","Kennard Calfee|Herbert B. Cahan"
2414073,55024812,"ABC Television Network|Johns Hopkins University|WAAM (Television station : Baltimore, Md.)","Tomorrow's careers (Television program)","Johns Hopkins University,","The rocket engineer",,,"00:28:35","1956-02-14",2004,"English","Kennard Calfee|Herbert B. Cahan"
2414074,54712387,"ABC Television Network|Johns Hopkins University|WAAM (Television station : Baltimore, Md.)","Tomorrow's careers (Television program)","Johns Hopkins University,","The chemist",,,"00:28:35","1955-12-17",2004,"English","Kennard Calfee|Herbert B. Cahan"
2414075,54712808,"ABC Television Network|Johns Hopkins University|WAAM (Television station : Baltimore, Md.)","Tomorrow's careers (Television program)","Johns Hopkins University,","Human relations",,,"00:28:45","1956-05-08",2004,"English","Kennard Calfee|Herbert B. Cahan"
2414076,54712353,"ABC Television Network|Johns Hopkins University|WAAM (Television station : Baltimore, Md.)","Tomorrow's careers (Television program)","Johns Hopkins University,","The architect",,,"00:28:35","1956-03-13",2004,"English","Kennard Calfee|Herbert B. Cahan"
2414077,55024712,"ABC Television Network|Johns Hopkins University|WAAM (Television station : Baltimore, Md.)","Tomorrow's careers (Television program)","Johns Hopkins University,","The doctor",,,"00:28:40","1956-04-24",2004,"English","Kennard Calfee|Herbert B. Cahan"
2414034,54712855,"ABC Television Network|Johns Hopkins University|WAAM (Television station : Baltimore, Md.)","Tomorrow's careers (Television program)","Johns Hopkins University,","Women in radio and television",,,"00:28:40","1956-04-03",2004,"English","Kennard Calfee|Herbert B. Cahan"
2414035,54859266,"ABC Television Network|Johns Hopkins University|WAAM (Television station : Baltimore, Md.)","Tomorrow's careers (Television program)","Johns Hopkins University,","Automotive stylist",,,"00:28:45","1956-05-01",2004,"English","Kennard Calfee|Herbert B. Cahan"
2414040,54770226,"ABC Television Network|Johns Hopkins University|WAAM (Television station : Baltimore, Md.)","Tomorrow (Television program)","Johns Hopkins University,","The archaeologist",,,"00:29:05","1955-04-02",2004,"English","Kennard Calfee|Herbert B. Cahan"
2414043,54771153,"ABC Television Network|Johns Hopkins University|WAAM (Television station : Baltimore, Md.)","Tomorrow's careers (Television program)","Johns Hopkins University,","The writer",,,"00:28:40","1956-03-06",2004,"English","Kennard Calfee|Herbert B. Cahan"
2414044,54712873,"ABC Television Network|Johns Hopkins University|WAAM (Television station : Baltimore, Md.)","Tomorrow's careers (Television program)","Johns Hopkins University,","The dermatologist",,,"00:29:05","1955-11-12",2004,"English","Kennard Calfee|Herbert B. Cahan"
2414045,56018918,"ABC Television Network|Johns Hopkins University|WAAM (Television station : Baltimore, Md.)","Tomorrow's careers (Television program)","Johns Hopkins University,","The historical collector",,,"00:28:20","1956-05-29",2004,"English","Kennard Calfee|Herbert B. Cahan"
2414046,54770883,"ABC Television Network|Johns Hopkins University|WAAM (Television station : Baltimore, Md.)","Tomorrow (Television program)","Johns Hopkins University,","The teacher",,,"00:29:05","1955-06-04",2004,"English","Kennard Calfee|Herbert B. Cahan"
2414047,54712884,"ABC Television Network|Johns Hopkins University|WAAM (Television station : Baltimore, Md.)","Tomorrow's careers (Television program)","Johns Hopkins University,","The pharmacist",,,"00:29:05","1955-10-22",2004,"English","Kennard Calfee|Herbert B. Cahan"
2414048,54859529,"ABC Television Network|Johns Hopkins University|WAAM (Television station : Baltimore, Md.)","Tomorrow (Television program)","Johns Hopkins University,","The merchandiser",,,"00:29:05","1955-05-21",2004,"English","Kennard Calfee|Herbert B. Cahan"
2414050,54712889,"ABC Television Network|Johns Hopkins University|WAAM (Television station : Baltimore, Md.)","Tomorrow's careers (Television program)","Johns Hopkins University,","The librarian",,,"00:28:45","1955-10-15",2004,"English","Kennard Calfee|Herbert B. Cahan"
2414052,54830453,"ABC Television Network|Johns Hopkins University|WAAM (Television station : Baltimore, Md.)","Tomorrow (Television program)","Johns Hopkins University,","Speech",,,"00:29:05","1955-04-09",2004,"English","Kennard Calfee|Herbert B. Cahan"
2415107,54860034,"ABC Television Network|Johns Hopkins University|WAAM (Television station : Baltimore, Md.)","Johns Hopkins File 7 (Television program)","Johns Hopkins University,","Is X-ray harmful?",,,"00:28:30","1957-01-20",2004,"English","Kennard Calfee"
2415085,54859985,"ABC Television Network|Johns Hopkins University|WAAM (Television station : Baltimore, Md.)","Johns Hopkins File 7 (Television program)","Johns Hopkins University,","Seeing in the dark",,,"00:28:50","1957-01-13",2004,"English","Kennard Calfee"
2415086,54859696,"ABC Television Network|Johns Hopkins University|WAAM (Television station : Baltimore, Md.)","Johns Hopkins File 7 (Television program)","Johns Hopkins University,","Who was here first?",,,"00:30:10","1957-01-27",2004,"English","Kennard Calfee"
2415088,54859617,"ABC Television Network|Johns Hopkins University|WAAM (Television station : Baltimore, Md.)","Johns Hopkins File 7 (Television program)","Johns Hopkins University,","Toys in scienceland",,,"00:28:40","1956-12-23",2004,"English","Kennard Calfee"
2415093,54859182,"ABC Television Network|Johns Hopkins University|WJZ-TV (Television station : Baltimore, Md.)","Johns Hopkins File 7 (Television program)","Johns Hopkins University,","Battle for Leyte Gulf",,,"00:29:00","1957-10-20",2004,"English","Kennard Calfee"
2415094,55024833,"ABC Television Network|Johns Hopkins University|WJZ-TV (Television station : Baltimore, Md.)","Johns Hopkins File 7 (Television program)","Johns Hopkins University,","Harnessing the sun",,,"00:29:00","1957-10-06",2004,"English","Kennard Calfee"
2415095,54830438,"ABC Television Network|Johns Hopkins University|WAAM (Television station : Baltimore, Md.)","Johns Hopkins File 7 (Television program)","Johns Hopkins University,","Books you may not know",,,"00:24:00","1957-02-03",2004,"English","Kennard Calfee"
2415096,54859930,"ABC Television Network|Johns Hopkins University|WAAM (Television station : Baltimore, Md.)","Johns Hopkins File 7 (Television program)","Johns Hopkins University,","Insight on eyesight",,,"00:28:20","1957-03-03",2004,"English","Richard Lusher"
2415097,54859355,"ABC Television Network|Johns Hopkins University|WAAM (Television station : Baltimore, Md.)","Johns Hopkins File 7 (Television program)","Johns Hopkins University,","Can you read?",,,"00:28:40","1956-12-02",2004,"English","Kennard Calfee"
2415101,55024747,"ABC Television Network|Johns Hopkins University|WAAM (Television station : Baltimore, Md.)","Tomorrow's careers (Television program)","Johns Hopkins University,","Railroad engineer",,,"00:29:15","1956-05-15",2004,"English","Kennard Calfee|Herbert B. Cahan"
2415106,54859453,"ABC Television Network|Johns Hopkins University|WAAM (Television station : Baltimore, Md.)","Johns Hopkins File 7 (Television program)","Johns Hopkins University,","Science in art",,,"00:28:40","1956-12-09",2004,"English","Kennard Calfee"
2415069,54859337,"ABC Television Network|Johns Hopkins University|WAAM (Television station : Baltimore, Md.)","Johns Hopkins File 7 (Television program)","Johns Hopkins University,","Pattern for the future",,,"00:28:40","1957-01-06",2004,"English","Kennard Calfee"
2415071,54858545,"ABC Television Network|Johns Hopkins University|WAAM (Television station : Baltimore, Md.)","Johns Hopkins File 7 (Television program)","Johns Hopkins University,","Emotions in art",,,"00:29:10","1957-10-13",2004,"English","Kennard Calfee"
2415072,54859954,"ABC Television Network|Johns Hopkins University|WAAM (Television station : Baltimore, Md.)","Johns Hopkins File 7 (Television program)","Johns Hopkins University,","Knight life",,,"00:29:00","1957-03-17",2004,"English","Kennard Calfee"
2415073,54860026,"ABC Television Network|Johns Hopkins University|WAAM (Television station : Baltimore, Md.)","Johns Hopkins File 7 (Television program)","Johns Hopkins University,","The origin of life",,,"00:28:40","1956-11-25",2004,"English","Kennard Calfee"
2415075,54858680,"ABC Television Network|Johns Hopkins University|WAAM (Television station : Baltimore, Md.)","Johns Hopkins File 7 (Television program)","Johns Hopkins University,","Dumb show",,,"00:29:00","1957-06-09",2004,"English",
2415076,54830412,"ABC Television Network|Johns Hopkins University|WAAM (Television station : Baltimore, Md.)","Johns Hopkins File 7 (Television program)","Johns Hopkins University,","206 bones","Two hundred and six bones",,"00:29:00","1957-04-28",2004,"English","Kennard Calfee"
2415078,55024790,"ABC Television Network|Johns Hopkins University|WJZ-TV (Television station : Baltimore, Md.)","Johns Hopkins File 7 (Television program)","Johns Hopkins University,","Asian flu",,,"00:29:10","1957-11-02",2004,"English","Kennard Calfee"
2417977,54684927,"Du Mont Television Network|Johns Hopkins University.|WAAM (Television station : Baltimore, Md.)","Johns Hopkins science review (Television program)","Johns Hopkins University,","How cold is cold?",,,"00:29:10","1955-01-30",2004,"English","Kennard Calfee|Herbert B. Cahan"
2418555,54859605,"ABC Television Network|Johns Hopkins University|WJZ-TV (Television station : Baltimore, Md.)","Johns Hopkins File 7 (Television program)","Johns Hopkins University,","The photosynthetic machine",,,"00:29:00","1958-05-24",2004,"English","Kennard Calfee"
2418556,54858944,"ABC Television Network|Johns Hopkins University|WJZ-TV (Television station : Baltimore, Md.)","Johns Hopkins File 7 (Television program)","Johns Hopkins University,","Whale hunt",,,"00:29:00","1958-11-30",2004,"English","Edward Fryers"
2418559,54858555,"ABC Television Network|Johns Hopkins University|WJZ-TV (Television station : Baltimore, Md.)","Johns Hopkins File 7 (Television program)","Johns Hopkins University,","Foundations for ideas",,,"00:29:10","1958-05-03",2004,"English","Kennard Calfee"
2418562,"54858488|2418562","ABC Television Network|Johns Hopkins University|WJZ-TV (Television station : Baltimore, Md.)","Johns Hopkins File 7 (Television program)","Johns Hopkins University,","Think and answer",,,"00:29:10","1958-11-02",2004,"English","Edward Fryers"
2418564,54858759,"ABC Television Network|Johns Hopkins University|WJZ-TV (Television station : Baltimore, Md.)","Johns Hopkins File 7 (Television program)","Johns Hopkins University,","The incredible tool",,,"00:29:00","1958-05-10",2004,"English","Kennard Calfee"
2418567,54859100,"ABC Television Network|Johns Hopkins University|WJZ-TV (Television station : Baltimore, Md.)","Johns Hopkins File 7 (Television program)","Johns Hopkins University,","Man in America",,,"00:29:00","1958-04-12",2004,"English","Kennard Calfee"
2418568,54858698,"ABC Television Network|Johns Hopkins University|WJZ-TV (Television station : Baltimore, Md.)","Johns Hopkins File 7 (Television program)","Johns Hopkins University,","The first steps",,,"00:29:00","1958-04-19",2004,"English","Kennard Calfee"
2418569,54858613,"ABC Television Network|Johns Hopkins University|WJZ-TV (Television station : Baltimore, Md.)","Johns Hopkins File 7 (Television program)","Johns Hopkins University,","Long day's song",,,"00:29:00","1958-05-17",2004,"English","Kennard Calfee"
2418571,54858468,"ABC Television Network|Johns Hopkins University|WJZ-TV (Television station : Baltimore, Md.)","Johns Hopkins File 7 (Television program)","Johns Hopkins University,","The raid at Harpers Ferry",,,"00:29:00","1958-11-09",2004,"English","Edward Fryers|Marvin Lipman"
2418573,54858997,"ABC Television Network|Johns Hopkins University|WJZ-TV (Television station : Baltimore, Md.)","Johns Hopkins File 7 (Television program)","Johns Hopkins University,","Profile on Poe",,,"00:29:00","1958-10-26",2004,"English","Edward Fryers"
2418419,55024779,"ABC Television Network|Johns Hopkins University|WAAM (Television station : Baltimore, Md.)","Johns Hopkins File 7 (Television program)","Johns Hopkins University,","Ten years from today",,,"00:29:00","1958-03-08",2004,"English","Kennard Calfee"
2418420,55024668,"ABC Television Network|Johns Hopkins University|WAAM (Television station : Baltimore, Md.)","Johns Hopkins File 7 (Television program)","Johns Hopkins University,","The human brain",,,"00:29:00","1958-04-04",2004,"English","Kennard Calfee"
2418421,55024610,"ABC Television Network|Johns Hopkins University|WAAM (Television station : Baltimore, Md.)","Johns Hopkins File 7 (Television program)","Johns Hopkins University,","Come hither love to me",,,"00:29:20","1958-03-29",2004,"English","Kennard Calfee"
2418422,55024799,"ABC Television Network|Johns Hopkins University|WAAM (Television station : Baltimore, Md.)","Johns Hopkins File 7 (Television program)","Johns Hopkins University,","Rebellion in Massachusetts",,,"00:28:20","1958-02-01",2004,"English","Kennard Calfee"
2418423,55023520,"ABC Television Network|Johns Hopkins University|WAAM (Television station : Baltimore, Md.)","Johns Hopkins File 7 (Television program)","Johns Hopkins University,","How to guide a missile",,,"00:29:00","1958-03-01",2004,"English","Kennard Calfee"
2418424,55023534,"ABC Television Network|Johns Hopkins University|WAAM (Television station : Baltimore, Md.)","Johns Hopkins File 7 (Television program)","Johns Hopkins University,","Why do we dance?",,,"00:29:05","1958-01-25",2004,"English","Kennard Calfee"
2418425,55024484,"ABC Television Network|Johns Hopkins University|WAAM (Television station : Baltimore, Md.)","Johns Hopkins File 7 (Television program)","Johns Hopkins University,","Education 1970",,,"00:29:00","1958-02-08",2004,"English","Kennard Calfee"
2418426,55024782,"ABC Television Network|Johns Hopkins University|WAAM (Television station : Baltimore, Md.)","Johns Hopkins File 7 (Television program)","Johns Hopkins University,","The educational pursuit",,,"00:29:00","1958-04-26",2004,"English","Kennard Calfee"
2418427,55024697,"ABC Television Network|Johns Hopkins University|WAAM (Television station : Baltimore, Md.)","Johns Hopkins File 7 (Television program)","Johns Hopkins University,","Hear not, speak not",,,"00:29:05","1958-03-15",2004,"English","Kennard Calfee"
2418428,55023306,"ABC Television Network|Johns Hopkins University|WAAM (Television station : Baltimore, Md.)","Johns Hopkins File 7 (Television program)","Johns Hopkins University,","Progress on propulsion",,,"00:29:10","1958-02-22",2004,"English",
2418429,55024719,"ABC Television Network|Johns Hopkins University|WAAM (Television station : Baltimore, Md.)","Johns Hopkins File 7 (Television program)","Johns Hopkins University,","Lacrosse, Hopkins report",,,"00:28:55","1958-03-22",2004,"English","Kennard Calfee"
2418430,55023246,"ABC Television Network|Johns Hopkins University|WAAM (Television station : Baltimore, Md.)","Johns Hopkins File 7 (Television program)","Johns Hopkins University,","The radio window",,,"00:29:00","1958-01-18",2004,"English","Kennard Calfee"
2418432,55024007,"ABC Television Network|Johns Hopkins University|WAAM (Television station : Baltimore, Md.)","Johns Hopkins File 7 (Television program)","Johns Hopkins University,","Life in a drop of water",,,"00:29:00","1958-02-15",2004,"English","Kennard Calfee"
2420060,55057752,"ABC Television Network|Johns Hopkins University|WJZ-TV (Television station : Baltimore, Md.)","Johns Hopkins File 7 (Television program)","Johns Hopkins University,","The daring young men",,,"00:29:05","1959-04-05",2004,"English","Ed Fryers"
2420062,55057515,"ABC Television Network|Johns Hopkins University|WJZ-TV (Television station : Baltimore, Md.)","Johns Hopkins File 7 (Television program)","Johns Hopkins University,","The sensible echo",,,"00:28:25","1958-11-23",2004,"English","Ed Fryers"
2420064,55057816,"ABC Television Network|Johns Hopkins University|WJZ-TV (Television station : Baltimore, Md.)","Johns Hopkins File 7 (Television program)","Johns Hopkins University,","The inevitable marriage",,,"00:29:00","1959-03-01",2004,"English","Ed Fryers"
2420066,55057825,"ABC Television Network|Johns Hopkins University|WJZ-TV (Television station : Baltimore, Md.)","Johns Hopkins File 7 (Television program)","Johns Hopkins University,","Measuring tomorrow",,,"00:29:05","1959-03-15",2004,"English","Ed Fryers"
2420067,55057836,"ABC Television Network|Johns Hopkins University|WJZ-TV (Television station : Baltimore, Md.)","Johns Hopkins File 7 (Television program)","Johns Hopkins University,","Remember the Maine and to hell with Spain",,,"00:28:10","1959-02-15",2004,"English","Marvin Lipman"
2420068,55057733,"ABC Television Network|Johns Hopkins University|WJZ-TV (Television station : Baltimore, Md.)","Johns Hopkins File 7 (Television program)","Johns Hopkins University,","Breath of life",,,"00:29:05","1958-12-21",2004,"English","Ed Fryers"
2420069,55057652,"ABC Television Network|Johns Hopkins University|WJZ-TV (Television station : Baltimore, Md.)","Johns Hopkins File 7 (Television program)","Johns Hopkins University,","Gifts without wrappings",,,"00:29:10","1958-12-14",2004,"English","Ed Fryers"
2420033,55057232,"ABC Television Network|Johns Hopkins University|WAAM (Television station : Baltimore, Md.)","Johns Hopkins File 7 (Television program)","Johns Hopkins University,","Campus Christmas",,,"00:28:40","1956-12-15",2004,"English","Kennard Calfee"
2420036,55057120,"ABC Television Network|Johns Hopkins University|WJZ-TV (Television station : Baltimore, Md.)","Johns Hopkins File 7 (Television program)","Johns Hopkins University,","Campus Christmas",,,"00:29:00","1957-12-14",2004,"English","Kennard Calfee"
2420037,55057468,"ABC Television Network|Johns Hopkins University|WJZ-TV (Television station : Baltimore, Md.)","Johns Hopkins File 7 (Television program)","Johns Hopkins University,","Educating a chemist",,,"00:29:00","1957-12-28",2004,"English","Kennard Calfee"
2420041,55057770,"ABC Television Network|Johns Hopkins University|WJZ-TV (Television station : Baltimore, Md.)","Johns Hopkins File 7 (Television program)","Johns Hopkins University,","The reconstructive art",,,"00:28:25","1959-04-19",2004,"English","Ed Fryers"
2420042,55057448,"ABC Television Network|Johns Hopkins University|WAAM (Television station : Baltimore, Md.)","Johns Hopkins File 7 (Television program)","Johns Hopkins University,","What is a picture?",,,"00:28:45","1956-12-30",2004,"English","Leo Geier"
2420043,55057621,"ABC Television Network|Johns Hopkins University|WJZ-TV (Television station : Baltimore, Md.)","Johns Hopkins File 7 (Television program)","Johns Hopkins University,","The world of Emily Dickinson",,,"00:29:00","1957-12-07",2004,"English","Kennard Calfee"
2420044,55057269,"ABC Television Network|Johns Hopkins University|WJZ-TV (Television station : Baltimore, Md.)","Johns Hopkins File 7 (Television program)","Johns Hopkins University,","Man going up",,,"00:29:00","1957-11-30",2004,"English","Kennard Calfee"
2420050,55057391,"ABC Television Network|Johns Hopkins University|WJZ-TV (Television station : Baltimore, Md.)","Johns Hopkins File 7 (Television program)","Johns Hopkins University,","Radar, weather detective",,,"00:28:40","1957-11-09",2004,"English","Kennard Calfee"
2420053,55057434,"ABC Television Network|Johns Hopkins University|WJZ-TV (Television station : Baltimore, Md.)","Johns Hopkins File 7 (Television program)","Johns Hopkins University,","The unquiet heart",,,"00:29:30","1957-10-27",2004,"English","Kennard Calfee"
2420054,55057608,"ABC Television Network|Johns Hopkins University|WJZ-TV (Television station : Baltimore, Md.)","Johns Hopkins File 7 (Television program)","Johns Hopkins University,","A puff of glass",,,"00:29:00","1957-12-21",2004,"English","Kennard Calfee"
2420057,55057495,"ABC Television Network|Johns Hopkins University|WJZ-TV (Television station : Baltimore, Md.)","Johns Hopkins File 7 (Television program)","Johns Hopkins University,","Heartbeat of the orchestra",,,"00:29:20","1958-01-11",2004,"English","Kennard Calfee"
2420058,55057325,"ABC Television Network|Johns Hopkins University|WJZ-TV (Television station : Baltimore, Md.)","Johns Hopkins File 7 (Television program)","Johns Hopkins University,","The lonely ones",,,"00:29:00","1957-11-16",2004,"English","Kennard Calfee"
2420023,55057882,"ABC Television Network|Johns Hopkins University|WJZ-TV (Television station : Baltimore, Md.)","Johns Hopkins File 7 (Television program)","Johns Hopkins University,","Men who changed the world.",,,"00:29:05","1959-02-08",2004,"English","Ed Fryers"
2420024,55058059,"ABC Television Network|Johns Hopkins University|WJZ-TV (Television station : Baltimore, Md.)","Johns Hopkins File 7 (Television program)","Johns Hopkins University,","Tool of history",,,"00:29:05","1958-12-07",2004,"English","Ed Fryers"
2420025,55058010,"ABC Television Network|Johns Hopkins University|WJZ-TV (Television station : Baltimore, Md.)","Johns Hopkins File 7 (Television program)","Johns Hopkins University,","Men who changed the world.","Coming of evolution",,"00:29:05","1959-01-11",2004,"English","Ed Fryers"
2420027,55057992,"ABC Television Network|Johns Hopkins University|WJZ-TV (Television station : Baltimore, Md.)","Johns Hopkins File 7 (Television program)","Johns Hopkins University,","Men who changed the world.","Man who made the world go round",,"00:29:10","1959-01-18",2004,"English","Ed Fryers"
2420028,55058035,"ABC Television Network|Johns Hopkins University|WJZ-TV (Television station : Baltimore, Md.)","Johns Hopkins File 7 (Television program)","Johns Hopkins University,","Men who changed the world.","Beast within.",,"00:29:10","1959-01-04",2004,"English","Ed Fryers"
2420029,55057960,"ABC Television Network|Johns Hopkins University|WJZ-TV (Television station : Baltimore, Md.)","Johns Hopkins File 7 (Television program)","Johns Hopkins University,","Men who changed the world.","Birth of liberty",,"00:29:05","1959-01-25",2004,"English","Ed Fryers"
2420031,55057789,"ABC Television Network|Johns Hopkins University|WJZ-TV (Television station : Baltimore, Md.)","Johns Hopkins File 7 (Television program)","Johns Hopkins University,","Mystery of the Rongorongo",,,"00:29:15","1959-02-22",2004,"English","Ed Fryers"
2420032,55057851,"ABC Television Network|Johns Hopkins University|WJZ-TV (Television station : Baltimore, Md.)","Johns Hopkins File 7 (Television program)","Johns Hopkins University,","The geophysical patient",,,"00:29:10","1958-12-28",2004,"English","Ed Fryers"
2422061,55490374,"ABC Television Network|Johns Hopkins University|WJZ-TV (Television station : Baltimore, Md.)","Johns Hopkins File 7 (Television program)","Johns Hopkins University,","Resurrection of Christ in art",,,"00:29:15","1959-03-29",2004,"English",
2422062,55490421,"ABC Television Network|Johns Hopkins University|WJZ-TV (Television station : Baltimore, Md.)","Johns Hopkins File 7 (Television program)","Johns Hopkins University,","New worlds waiting.","Desert world",,"00:29:15","1960-01-17",2004,"English","Ed Fryers"
2422063,55490486,"ABC Television Network|Johns Hopkins University|WJZ-TV (Television station : Baltimore, Md.)","Johns Hopkins File 7 (Television program)","Johns Hopkins University,","Where are you?",,,"00:29:10","1959-11-15",2004,"English","Ed Fryers"
2422064,55490499,"ABC Television Network|Johns Hopkins University|WJZ-TV (Television station : Baltimore, Md.)","Johns Hopkins File 7 (Television program)","Johns Hopkins University,","Euterpe and you",,,"00:29:10","1959-11-08",2004,"English",
2422065,55490506,"ABC Television Network|Johns Hopkins University|WJZ-TV (Television station : Baltimore, Md.)","Johns Hopkins File 7 (Television program)","Johns Hopkins University,","New worlds waiting.","Unknown world",,"00:28:55","1960-01-10",2004,"English","Ed Fryers"
2422067,55490520,"ABC Television Network|Johns Hopkins University|WJZ-TV (Television station : Baltimore, Md.)","Johns Hopkins File 7 (Television program)","Johns Hopkins University,","New worlds waiting.","Nearest world",,"00:29:15","1960-01-03",2004,"English","Ed Fryers"
2422068,55490527,"ABC Television Network|Johns Hopkins University|WJZ-TV (Television station : Baltimore, Md.)","Johns Hopkins File 7 (Television program)","Johns Hopkins University,","Science fair",,,"00:29:15","1959-04-12",2004,"English","Ed Fryers"
2422069,55490533,"ABC Television Network|Johns Hopkins University|WJZ-TV (Television station : Baltimore, Md.)","Johns Hopkins File 7 (Television program)","Johns Hopkins University,","Singing statues",,,"00:28:55","1959-03-22",2004,"English","Ed Fryers"
2422070,55490545,"ABC Television Network|Johns Hopkins University|WJZ-TV (Television station : Baltimore, Md.)","Johns Hopkins File 7 (Television program)","Johns Hopkins University,","Lost paradise",,,"00:29:15","1959-04-26",2004,"English","Ed Fryers"
2422071,55490605,"ABC Television Network|Johns Hopkins University|WJZ-TV (Television station : Baltimore, Md.)","Johns Hopkins File 7 (Television program)","Johns Hopkins University,","Calendar on the wall",,,"00:29:15","1959-12-27",2004,"English","Ed Fryers"
2422072,55490619,"ABC Television Network|Johns Hopkins University|WJZ-TV (Television station : Baltimore, Md.)","Johns Hopkins File 7 (Television program)","Johns Hopkins University,","The great awakening",,,"00:29:10","1959-05-17",2004,"English","Ed Fryers"
2422073,55490628,"ABC Television Network|Johns Hopkins University|WJZ-TV (Television station : Baltimore, Md.)","Johns Hopkins File 7 (Television program)","Johns Hopkins University,","The hot stuff man",,,"00:29:20","1959-10-18",2004,"English","Bill Short"
2422047,55490321,"ABC Television Network|Johns Hopkins University|WJZ-TV (Television station : Baltimore, Md.)","Johns Hopkins File 7 (Television program)","Johns Hopkins University,","Man's new light",,,"00:29:15","1959-05-24",2004,"English","Ed Fryers"
2422055,55490335,"ABC Television Network|Johns Hopkins University|WJZ-TV (Television station : Baltimore, Md.)","Johns Hopkins File 7 (Television program)","Johns Hopkins University,","The master glassblower",,,"00:29:20","1959-11-01",2004,"English","Ed Fryers"
2422057,55490340,"ABC Television Network|Johns Hopkins University|WJZ-TV (Television station : Baltimore, Md.)","Johns Hopkins File 7 (Television program)","Johns Hopkins University,","The drunkard, (or the fallen saved)",,,"00:29:10","1959-11-22",2004,"English","Ed Fryers"
2422058,55490348,"ABC Television Network|Johns Hopkins University|WJZ-TV (Television station : Baltimore, Md.)","Johns Hopkins File 7 (Television program)","Johns Hopkins University,","This great stage",,,"00:29:05","1959-06-07",2004,"English","Ed Fryers"
2422059,55490360,"ABC Television Network|Johns Hopkins University|WJZ-TV (Television station : Baltimore, Md.)","Johns Hopkins File 7 (Television program)","Johns Hopkins University,","Weather satellites",,,"00:29:10","1959-05-03",2004,"English","Ed Fryers"
2422060,55490368,"ABC Television Network|Johns Hopkins University|WJZ-TV (Television station : Baltimore, Md.)","Johns Hopkins File 7 (Television program)","Johns Hopkins University,","Feud over feudalism",,,"00:29:10","1959-10-11",2004,"English","Edward Fryers"
2430198,55636757,"ABC Television Network|Johns Hopkins University|WJZ-TV (Television station : Baltimore, Md.)","Johns Hopkins File 7 (Television program)","Johns Hopkins University,","Thoreau, man who did what he wanted",,,"00:28:30","1960-05-08",2004,"English","Ed Fryers"
2430199,55636765,"ABC Television Network|Johns Hopkins University|WJZ-TV (Television station : Baltimore, Md.)","Johns Hopkins File 7 (Television program)","Johns Hopkins University,","Wish I were single",,,"00:29:00","1960-05-01",2004,"English","Ed Fryers"
2429782,55591473,"ABC Television Network|Johns Hopkins University|WJZ-TV (Television station : Baltimore, Md.)","Johns Hopkins File 7 (Television program)","Johns Hopkins University,","Elephants are where you find them",,,"00:29:20","1960-01-24",2004,"English","Ed Fryers"
2429783,55591495,"ABC Television Network|Johns Hopkins University|WJZ-TV (Television station : Baltimore, Md.)","Johns Hopkins File 7 (Television program)","Johns Hopkins University,","Venus and the dead king",,,"00:29:25","1960-04-03",2004,"English","Ed Fryers"
2429784,55591701,"ABC Television Network|Johns Hopkins University|WJZ-TV (Television station : Baltimore, Md.)","Johns Hopkins File 7 (Television program)","Johns Hopkins University,","100 gallons a day","One hundred gallons a day",,"00:28:55","1959-11-29",2004,"English","Ed Fryers"
2429785,55591727,"ABC Television Network|Johns Hopkins University|WJZ-TV (Television station : Baltimore, Md.)","Johns Hopkins File 7 (Television program)","Johns Hopkins University,","Stress in combat",,,"00:29:15","1960-04-10",2004,"English","Ed Fryers"
2429786,55591756,"ABC Television Network|Chesapeake Troubadors.|Johns Hopkins University|Johns Hopkins University. Glee Club|WJZ-TV (Television station : Baltimore, Md.)","Johns Hopkins File 7 (Television program)","Johns Hopkins University,","Sing a song of Christmas",,,"00:29:10","1959-12-20",2004,"English","Ed Fryers"
2429787,55591772,"ABC Television Network|Johns Hopkins University|WJZ-TV (Television station : Baltimore, Md.)","Johns Hopkins File 7 (Television program)","Johns Hopkins University,","Red light for growth",,,"00:29:15","1960-02-14",2004,"English","Ed Fryers"
2429789,55591802,"ABC Television Network|Johns Hopkins University|WJZ-TV (Television station : Baltimore, Md.)","Johns Hopkins File 7 (Television program)","Johns Hopkins University,","New look at the universe",,,"00:29:15","1960-02-28",2004,"English","Ed Fryers"
2429790,55591518,"ABC Television Network|Johns Hopkins University|WJZ-TV (Television station : Baltimore, Md.)","Johns Hopkins File 7 (Television program)","Johns Hopkins University,","The deep ship",,,"00:29:10","1958-11-16",2004,"English","Ed Fryers"
2429792,55591677,"ABC Television Network|Baltimore Woodwinds|Johns Hopkins University|WJZ-TV (Television station : Baltimore, Md.)","Johns Hopkins File 7 (Television program)","Johns Hopkins University,","A quintet concert",,,"00:29:20","1960-02-21",2004,"English","Ed Fryers"
2429794,55591688,"ABC Television Network|Johns Hopkins University|WJZ-TV (Television station : Baltimore, Md.)","Johns Hopkins File 7 (Television program)","Johns Hopkins University,","The poet's eye",,,"00:29:15","1960-02-07",2004,"English","Ed Fryers"
2429778,55591383,"ABC Television Network|Johns Hopkins University|WJZ-TV (Television station : Baltimore, Md.)","Johns Hopkins File 7 (Television program)","Johns Hopkins University,","The trial of Socrates",,,"00:29:15","1959-12-06",2004,"English","Ed Fryers"
2429779,55591414,"ABC Television Network|Johns Hopkins University|WJZ-TV (Television station : Baltimore, Md.)","Johns Hopkins File 7 (Television program)","Johns Hopkins University,","Mencken at large",,,"00:29:15","1959-12-13",2004,"English","Ed Fryers"
2429780,55591424,"ABC Television Network|Johns Hopkins University|WJZ-TV (Television station : Baltimore, Md.)","Johns Hopkins File 7 (Television program)","Johns Hopkins University,","The ham's wide world",,,"00:29:20","1960-04-17",2004,"English","Ed Fryers"
2429781,55591448,"ABC Television Network|Johns Hopkins University|WJZ-TV (Television station : Baltimore, Md.)","Johns Hopkins File 7 (Television program)","Johns Hopkins University,","Wound shock",,,"00:29:00","1960-03-20",2004,"English","Ed Fryers"
2430200,55636787,"ABC Television Network|Johns Hopkins University|WJZ-TV (Television station : Baltimore, Md.)","Johns Hopkins File 7 (Television program)","Johns Hopkins University,","The road from Kenya",,,"00:29:20","1960-05-29",2004,"English","Ed Fryers"
2430201,55636813,"ABC Television Network|Johns Hopkins University|WJZ-TV (Television station : Baltimore, Md.)","Johns Hopkins File 7 (Television program)","Johns Hopkins University,","Across the yellow waters",,,"00:29:10","1960-05-15",2004,"English","Ed Fryers"
2430202,55636832,"ABC Television Network|Johns Hopkins University|WJZ-TV (Television station : Baltimore, Md.)","Johns Hopkins File 7 (Television program)","Johns Hopkins University,","Tin can-can",,,"00:29:20","1960-04-24",2004,"English","Ed Fryers"
2430204,55636842,"ABC Television Network|Johns Hopkins University.|WJZ-TV (Television station : Baltimore, Md.)","Johns Hopkins File 7 (Television program)","Johns Hopkins University,","Project transit",,,"00:29:15","1960-03-06",2004,"English","Ed Fryers"
2430206,55637201,"ABC Television Network|Johns Hopkins University|WAAM (Television station : Baltimore, Md.)","Johns Hopkins File 7 (Television program)","Johns Hopkins University,","The living sea",,,"00:28:25","1957-06-02",2004,"English",
2430208,55637210,"Du Mont Television Network|Johns Hopkins University|WAAM (Television station : Baltimore, Md.)","Johns Hopkins science review (Television program)","Johns Hopkins University,","Highlights in review",,,"00:29:30","1952-06-09",2004,"English","Paul Kane"
2430211,55637096,"Du Mont Television Network|Johns Hopkins University|WAAM (Television station : Baltimore, Md.)","Johns Hopkins science review (Television program)","Johns Hopkins University,","Highlights in review",,,"00:29:40","1951-06-05",2004,"English","Ed Sarrow"
2430214,55637205,"Du Mont Television Network|Johns Hopkins University|WAAM (Television station : Baltimore, Md.)","Johns Hopkins science review (Television program)","Johns Hopkins University,","X-ray the super sleuth",,,"00:28:50","1950-12-05",2004,"English","Anthony Farrar"
2430215,55637124,"Du Mont Television Network|Johns Hopkins University|WAAM (Television station : Baltimore, Md.)","Johns Hopkins science review (Television program)","Johns Hopkins University,","It's a fact",,,"00:29:40","1951-12-03",2004,"English","Paul Kane"
2430216,55637185,"Du Mont Television Network|Johns Hopkins University|WAAM (Television station : Baltimore, Md.)","Johns Hopkins science review (Television program)","Johns Hopkins University,","Are you too fat?",,,"00:29:20","1953-09-15",2004,"English",
2430714,56019307,"Du Mont Television Network|Johns Hopkins University|WAAM (Television station : Baltimore, Md.)","Johns Hopkins science review (Television program)","Johns Hopkins University,","Earth quirks",,,"00:29:00","1952-12-29",2004,"English","Paul Kane"
2430715,56019033,"Du Mont Television Network|Johns Hopkins University|WAAM (Television station : Baltimore, Md.)","Johns Hopkins science review (Television program)","Johns Hopkins University,","A hospital never sleeps",,,"00:29:40","1952-01-21",2004,"English","Paul Kane"
2430717,56019018,"Du Mont Television Network|Johns Hopkins University|WAAM (Television station : Baltimore, Md.)","Johns Hopkins science review (Television program)","Johns Hopkins University,","Science goes to sea",,,"00:30:00","1952-03-10",2004,"English","Paul Kane"
2430719,56019067,"Brookhaven National Laboratory|Du Mont Television Network|Johns Hopkins University|WAAM (Television station : Baltimore, Md.)","Johns Hopkins science review (Television program)","Johns Hopkins University,","Tools of the trade",,,"00:29:35","1951-12-24",2004,"English","Paul Kane"
2430721,56019175,"Du Mont Television Network|Johns Hopkins University|WAAM (Television station : Baltimore, Md.)","Johns Hopkins science review (Television program)","Johns Hopkins University,","What are flying saucers?",,,"00:29:40","1952-09-15",2004,"English","Paul Kane"
2430723,56019202,"Du Mont Television Network|Johns Hopkins University|WAAM (Television station : Baltimore, Md.)","Johns Hopkins science review (Television program)","Johns Hopkins University,","Make something of nature",,,"00:29:35","1952-08-11",2004,"English","Paul Kane"
2430724,56019259,"Du Mont Television Network|Johns Hopkins University|WAAM (Television station : Baltimore, Md.)","Johns Hopkins science review (Television program)","Johns Hopkins University,","Nature's public enemies",,,"00:29:40","1952-06-30",2004,"English","Paul Kane"
2430728,56019294,"Du Mont Television Network|Johns Hopkins University|WAAM (Television station : Baltimore, Md.)","Johns Hopkins science review (Television program)","Johns Hopkins University,","Separating Siamese twins surgically",,,"00:29:35","1953-01-05",2004,"English","Paul Kane"
2430712,56019109,"Du Mont Television Network|Johns Hopkins University|WAAM (Television station : Baltimore, Md.)","Johns Hopkins science review (Television program)","Johns Hopkins University,","Which came first?",,,"00:26:55","1951-02-06",2004,"English",
2434373,56349836,"ABC Television Network|Johns Hopkins University|WAAM (Television station : Baltimore, Md.)","Tomorrow's careers (Television program)","Johns Hopkins University,","Jobs 1956",,,"00:28:50","1956-05-22",2004,"English","Kennard Calfee|Herbert B. Cahan"
2434374,56350241,"ABC Television Network|Johns Hopkins University|WAAM (Television station : Baltimore, Md.)","Tomorrow's careers (Television program)","Johns Hopkins University,","Courtroom doctor",,,"00:28:35","1955-10-08",2004,"English","Kennard Calfee|Herbert B. Cahan"
2434375,56088474,"Du Mont Television Network|Johns Hopkins University|WAAM (Television station : Baltimore, Md.)","Johns Hopkins science review (Television program)","Johns Hopkins University,","Your life in 1975",,,"00:29:55","1952-07-07",2004,"English","Paul Kane"
2434394,56716312,"Johns Hopkins University.",,"Johns Hopkins University,","JHU class of 1929 homecoming weekend 1954.","Class of 1929|Johns Hopkins University class of 1929",,"00:38:40","1952-07-07",2004,"English",
2434376,56349636,"Du Mont Television Network|Johns Hopkins University|WAAM (Television station : Baltimore, Md.)","Johns Hopkins science review (Television program)","Johns Hopkins University,","Effect of the sun on your skin",,,"00:29:30","1951-05-08",2004,"English","Anthony Farrar"
2434377,56089253,"ABC Television Network|Johns Hopkins University|WAAM (Television station : Baltimore, Md.)","Tomorrow's careers (Television program)","Johns Hopkins University,","The archaeologist",,,"00:28:35","1956-01-07",2004,"English","Kennard Calfee|Herbert B. Cahan"
2434378,56088956,"Du Mont Television Network|Johns Hopkins University|WAAM (Television station : Baltimore, Md.)","Johns Hopkins science review (Television program)","Johns Hopkins University,","Don't take your heart for granted",,,"00:28:00","1951-02-13",2004,"English","Anthony Farrar"
2434379,56089152,"Du Mont Television Network|Johns Hopkins University|WAAM (Television station : Baltimore, Md.)","Johns Hopkins science review (Television program)","Johns Hopkins University,","Time and size",,,"00:28:40","1954-11-14",2004,"English","Kennard Calfee|Herbert B. Cahan"
2434380,56088409,"Du Mont Television Network|Johns Hopkins University|WAAM (Television station : Baltimore, Md.)","Johns Hopkins science review (Television program)","Johns Hopkins University,","Scientists of tomorrow","Scientist of tomorrow",,"00:27:50","1954-03-03",2004,"English","Kennard Calfee|Herbert B. Cahan"
2434381,56088977,"Du Mont Television Network|Johns Hopkins University|WAAM (Television station : Baltimore, Md.)","Johns Hopkins science review (Television program)","Johns Hopkins University,","The world from 78 miles up",,,"00:29:25","1951-09-11",2004,"English","Ed Sarrow"
2434382,56088193,"Du Mont Television Network|Johns Hopkins University|WAAM (Television station : Baltimore, Md.)","Johns Hopkins science review (Television program)","Johns Hopkins University,","Troubled people meet",,,"00:29:30","1953-05-13",2004,"English",
2434383,56088426,"Du Mont Television Network|Johns Hopkins University|WAAM (Television station : Baltimore, Md.)","Johns Hopkins science review (Television program)","Johns Hopkins University,","From studio to your home",,,"00:29:35","1952-01-14",2004,"English","Paul Kane"
2434384,56089093,"Du Mont Television Network|Johns Hopkins University|WAAM (Television station : Baltimore, Md.)","Johns Hopkins science review (Television program)","Johns Hopkins University,","The artist and the doctor",,,"00:29:35","1951-12-17",2004,"English","Paul Kane"
2434385,56088710,"Du Mont Television Network|Johns Hopkins University|WAAM (Television station : Baltimore, Md.)","Johns Hopkins science review (Television program)","Johns Hopkins University,","Science- coast to coast",,,"00:29:00","1952-12-15",2004,"English","Paul Kane"
2434386,56088344,"Du Mont Television Network|Johns Hopkins University|WAAM (Television station : Baltimore, Md.)","Johns Hopkins science review (Television program)","Johns Hopkins University,","The most precise balance in the world",,,"00:29:00","1954-02-10",2004,"English","Kennard Calfee|Herbert B. Cahan"
2434388,56350409,"Du Mont Television Network|Johns Hopkins University|WAAM (Television station : Baltimore, Md.)","Johns Hopkins science review (Television program)","Johns Hopkins University,","Science of toys","Toys and science",,"00:28:45","1954-11-28",2004,"English","Kennard Calfee|Herbert B. Cahan"
2434389,56349590,"Du Mont Television Network|Johns Hopkins University|WAAM (Television station : Baltimore, Md.)","Johns Hopkins science review (Television program)","Johns Hopkins University,","Man against cancer.",,,"00:29:35","1953-01-19",2004,"English","Paul Kane"
2434390,56349556,"Du Mont Television Network|Johns Hopkins University|WAAM (Television station : Baltimore, Md.)","Johns Hopkins science review (Television program)","Johns Hopkins University,","Man against cancer.",,,"00:29:35","1953-01-26",2003,"English","Paul Kane"
2434393,56715624,"Johns Hopkins University|Milner Productions.",,"Johns Hopkins University,","The university",,,"00:24:45","1956-06-10",2004,"English","Clyde Stallings"
2441115,56349735,"Du Mont Television Network|Johns Hopkins University|WAAM (Television station : Baltimore, Md.)","Johns Hopkins science review (Television program)","Johns Hopkins University,","Is it true?",,,"00:28:30","1953-10-29",2004,"English","Paul Kane"
2441123,56350342,"ABC Television Network|Johns Hopkins University|WAAM (Television station : Baltimore, Md.)","Tomorrow's careers (Television program)","Johns Hopkins University,","The librarian",,,"00:28:40","1956-10-14",2004,"English","Kennard Calfee|Herbert B. Cahan"
2441125,56349787,"Du Mont Television Network|Johns Hopkins University|WAAM (Television station : Baltimore, Md.)","Johns Hopkins science review (Television program)","Johns Hopkins University,","Stars in your skies",,,"00:29:35","1954-09-19",2004,"English","Kennard Calfee|Herbert B. Cahan"
2453775,56715715,"ABC Television Network|Johns Hopkins University|WJZ-TV (Television station : Baltimore, Md.)","Johns Hopkins File 7 (Television program)","Johns Hopkins University,","Unheard melodies",,,"00:29:00","1960-03-13",2004,"English",
2453776,56715752,"ABC Television Network|Johns Hopkins University|WJZ-TV (Television station : Baltimore, Md.)","Johns Hopkins File 7 (Television program)","Johns Hopkins University,","The humane future",,,"00:29:00","1960-01-31",2004,"English","Ed Fryers"
